<?xml version="1.0" encoding="UTF-8"?>
<svg width="10px" height="16px" viewBox="0 0 10 16" version="1.1" xmlns="http://www.w3.org/2000/svg" xmlns:xlink="http://www.w3.org/1999/xlink">
    <!-- Generator: Sketch 48.2 (47327) - http://www.bohemiancoding.com/sketch -->
    <title>Combined Shape</title>
    <desc>Created with Sketch.</desc>
    <defs>
        <path d="M17.1333997,8 L17.2428739,8.1094742 L9.35234807,16 L8.1,14.7476519 L14.8476519,8 L8.1,1.25234807 L9.35234807,-9.76996262e-15 L17.2428739,7.8905258 L17.1333997,8 Z" id="path-1"></path>
    </defs>
    <g id="icon/chevron" stroke="none" stroke-width="1" fill="none" fill-rule="evenodd" transform="translate(-8.000000, 0.000000)">
        <mask id="mask-2" fill="white">
            <use xlink:href="#path-1"></use>
        </mask>
        <use id="Combined-Shape" fill="#0095DA" xlink:href="#path-1"></use>
    </g>
</svg>