<?xml version="1.0" encoding="UTF-8"?>
<svg width="25px" height="22px" viewBox="0 0 25 22" version="1.1" xmlns="http://www.w3.org/2000/svg" xmlns:xlink="http://www.w3.org/1999/xlink">
    <!-- Generator: Sketch 48.2 (47327) - http://www.bohemiancoding.com/sketch -->
    <title>Shape</title>
    <desc>Created with Sketch.</desc>
    <defs></defs>
    <g id="Page-1" stroke="none" stroke-width="1" fill="none" fill-rule="evenodd">
        <g id="menu-symbol-of-three-parallel-lines-svgrepo-com" fill="#9B9B9B" fill-rule="nonzero">
            <path d="M0,2.875 C0,1.771 0.896,0.875 2,0.875 L22.75,0.875 C23.854,0.875 24.75,1.771 24.75,2.875 C24.75,3.979 23.854,4.875 22.75,4.875 L2,4.875 C0.896,4.875 0,3.979 0,2.875 Z M22.75,9.375 L2,9.375 C0.896,9.375 0,10.271 0,11.375 C0,12.479 0.896,13.375 2,13.375 L22.75,13.375 C23.854,13.375 24.75,12.479 24.75,11.375 C24.75,10.271 23.855,9.375 22.75,9.375 Z M22.75,17.875 L2,17.875 C0.896,17.875 0,18.771 0,19.875 C0,20.979 0.896,21.875 2,21.875 L22.75,21.875 C23.854,21.875 24.75,20.979 24.75,19.875 C24.75,18.771 23.855,17.875 22.75,17.875 Z" id="Shape"></path>
        </g>
    </g>
</svg>