<?xml version="1.0" encoding="UTF-8"?>
<svg width="12px" height="12px" viewBox="0 0 12 12" version="1.1" xmlns="http://www.w3.org/2000/svg" xmlns:xlink="http://www.w3.org/1999/xlink">
    <!-- Generator: Sketch 48.2 (47327) - http://www.bohemiancoding.com/sketch -->
    <title>path-1</title>
    <desc>Created with Sketch.</desc>
    <defs></defs>
    <g id="Page-1" stroke="none" stroke-width="1" fill="none" fill-rule="evenodd">
        <g id="icon-delete" fill="#FFFFFF" fill-rule="nonzero">
            <path d="M5.99999995,4.96940262 L10.7907732,0.20627098 C11.0685319,-0.06988514 11.5175699,-0.068587306 11.7937277,0.20916978 C12.0698854,0.48692686 12.0685876,0.93596224 11.7908289,1.21211836 L7.00587007,5.96946912 L11.7908289,10.7268199 C12.0685876,11.002976 12.0698854,11.4520114 11.7937277,11.7297685 C11.5175699,12.0075255 11.0685319,12.0088234 10.7907732,11.7326672 L5.99999995,6.96953562 L1.20922672,11.7326672 C0.93146799,12.0088234 0.48242996,12.0075255 0.2062722,11.7297685 C-0.069885553,11.4520114 -0.068587711,11.002976 0.20917101,10.7268199 L4.99412982,5.96946912 L0.20917101,1.21211836 C-0.068587711,0.93596224 -0.069885553,0.48692686 0.2062722,0.20916978 C0.48242996,-0.068587306 0.93146799,-0.06988514 1.20922672,0.20627098 L5.99999995,4.96940262 Z" id="path-1"></path>
        </g>
    </g>
</svg>