<?xml version="1.0" encoding="UTF-8"?>
<svg width="18px" height="18px" viewBox="0 0 18 18" version="1.1" xmlns="http://www.w3.org/2000/svg" xmlns:xlink="http://www.w3.org/1999/xlink">
    <!-- Generator: Sketch 48.2 (47327) - http://www.bohemiancoding.com/sketch -->
    <title>icon-delete</title>
    <desc>Created with Sketch.</desc>
    <defs></defs>
    <g id="Page-1" stroke="none" stroke-width="1" fill="none" fill-rule="evenodd">
        <g id="icon-delete" fill="#08131F" fill-rule="nonzero">
            <path d="M8.99999994,7.45410393 L16.1861598,0.30940647 C16.6027979,-0.10482771 17.2763549,-0.102880959 17.6905916,0.31375467 C18.1048281,0.73039029 18.1028814,1.40394336 17.6862434,1.81817754 L10.5088051,8.95420368 L17.6862434,16.0902299 C18.1028814,16.504464 18.1048281,17.1780171 17.6905916,17.5946527 C17.2763549,18.0112882 16.6027979,18.0132351 16.1861598,17.5990008 L8.99999994,10.4543034 L1.81384008,17.5990008 C1.39720199,18.0132351 0.723644941,18.0112882 0.3094083,17.5946527 C-0.10482833,17.1780171 -0.102881567,16.504464 0.313756515,16.0902299 L7.49119474,8.95420368 L0.313756515,1.81817754 C-0.102881567,1.40394336 -0.10482833,0.73039029 0.3094083,0.31375467 C0.723644941,-0.102880959 1.39720199,-0.10482771 1.81384008,0.30940647 L8.99999994,7.45410393 Z" id="path-1"></path>
        </g>
    </g>
</svg>