<?xml version="1.0" encoding="UTF-8"?>
<svg width="34px" height="36px" viewBox="0 0 34 36" version="1.1" xmlns="http://www.w3.org/2000/svg" xmlns:xlink="http://www.w3.org/1999/xlink">
    <!-- Generator: Sketch 48.2 (47327) - http://www.bohemiancoding.com/sketch -->
    <title>Shape</title>
    <desc>Created with Sketch.</desc>
    <defs>
        <path d="M32.3589062,9.12088264 L32.3589062,1.28115609 C32.3589062,0.662926672 32.0946174,0.317989683 31.5189355,0.0917465943 C31.075398,-0.0830002517 30.6442131,0.0211451353 30.1189843,0.161195152 L1,9.12088264 L1,33.7600232 C1,34.9964272 2.00236504,36 3.23992187,36 L32.3589062,36 C33.596463,36 34.5988281,34.9964821 34.5988281,33.7600232 L34.5988281,11.3608045 C34.5988281,10.1244006 33.596463,9.12088264 32.3589062,9.12088264 Z M30.1190392,2.40111702 L30.1190392,9.12088264 L8.27980098,9.12088264 L30.1190392,2.40111702 Z M32.3589062,23.6804297 C32.3589062,24.2986042 32.3589062,24.0298685 32.3589062,24.8003906 L27.8790076,24.8003906 C27.8790076,24.0757649 27.8790076,24.2985493 27.8790076,23.6804297 L27.8790076,22.5604688 L32.3589062,22.5604688 C32.3589062,23.4004395 32.3589062,23.0621454 32.3589062,23.6804297 Z M32.3589062,20.320492 L26.7591015,20.320492 C26.1408721,20.320492 25.6391406,20.8223333 25.6391406,21.4404529 L25.6391406,25.9202967 C25.6391406,26.538581 26.140927,27.0402576 26.7591015,27.0402576 L32.3589062,27.0402576 L32.3589062,32.6400623 C32.3589062,33.2583466 31.8571198,33.7600232 31.2389453,33.7600232 L4.35988281,33.7600232 C3.74165339,33.7600232 3.23992187,33.2582917 3.23992187,32.6400623 C3.23992187,32.6400623 3.23992187,12.1313816 3.23992187,11.3608045 L31.2389453,11.3608045 C31.8571747,11.3608045 32.3589062,11.861438 32.3589062,12.4807654 L32.3589062,20.320492 Z" id="path-1"></path>
    </defs>
    <g id="icon/payment" stroke="none" stroke-width="1" fill="none" fill-rule="evenodd" transform="translate(-1.000000, 0.000000)">
        <mask id="mask-2" fill="white">
            <use xlink:href="#path-1"></use>
        </mask>
        <use id="Shape" fill="#1896D6" fill-rule="nonzero" xlink:href="#path-1"></use>
    </g>
</svg>